…
## `select()` (8 min)

1. Make a data frame containing the columns `year`, `lifeExp`, `country` from the gapminder data, in that order.


```r
select(gapminder, year, lifeExp, country)
```

```
## # A tibble: 1,704 x 3
##     year lifeExp country    
##    <int>   <dbl> <fct>      
##  1  1952    28.8 Afghanistan
##  2  1957    30.3 Afghanistan
##  3  1962    32.0 Afghanistan
##  4  1967    34.0 Afghanistan
##  5  1972    36.1 Afghanistan
##  6  1977    38.4 Afghanistan
##  7  1982    39.9 Afghanistan
##  8  1987    40.8 Afghanistan
##  9  1992    41.7 Afghanistan
## 10  1997    41.8 Afghanistan
## # … with 1,694 more rows
```


2. Select all variables, from `country` to `lifeExp`.


```r
# This will work:
select(gapminder, country, continent, year, lifeExp)
```

```
## # A tibble: 1,704 x 4
##    country     continent  year lifeExp
##    <fct>       <fct>     <int>   <dbl>
##  1 Afghanistan Asia       1952    28.8
##  2 Afghanistan Asia       1957    30.3
##  3 Afghanistan Asia       1962    32.0
##  4 Afghanistan Asia       1967    34.0
##  5 Afghanistan Asia       1972    36.1
##  6 Afghanistan Asia       1977    38.4
##  7 Afghanistan Asia       1982    39.9
##  8 Afghanistan Asia       1987    40.8
##  9 Afghanistan Asia       1992    41.7
## 10 Afghanistan Asia       1997    41.8
## # … with 1,694 more rows
```

```r
# Better way:
select(gapminder, country:lifeExp)
```

```
## # A tibble: 1,704 x 4
##    country     continent  year lifeExp
##    <fct>       <fct>     <int>   <dbl>
##  1 Afghanistan Asia       1952    28.8
##  2 Afghanistan Asia       1957    30.3
##  3 Afghanistan Asia       1962    32.0
##  4 Afghanistan Asia       1967    34.0
##  5 Afghanistan Asia       1972    36.1
##  6 Afghanistan Asia       1977    38.4
##  7 Afghanistan Asia       1982    39.9
##  8 Afghanistan Asia       1987    40.8
##  9 Afghanistan Asia       1992    41.7
## 10 Afghanistan Asia       1997    41.8
## # … with 1,694 more rows
```


3. Select all variables, except `lifeExp`.


```r
select(gapminder, -lifeExp)
```

```
## # A tibble: 1,704 x 5
##    country     continent  year      pop gdpPercap
##    <fct>       <fct>     <int>    <int>     <dbl>
##  1 Afghanistan Asia       1952  8425333      779.
##  2 Afghanistan Asia       1957  9240934      821.
##  3 Afghanistan Asia       1962 10267083      853.
##  4 Afghanistan Asia       1967 11537966      836.
##  5 Afghanistan Asia       1972 13079460      740.
##  6 Afghanistan Asia       1977 14880372      786.
##  7 Afghanistan Asia       1982 12881816      978.
##  8 Afghanistan Asia       1987 13867957      852.
##  9 Afghanistan Asia       1992 16317921      649.
## 10 Afghanistan Asia       1997 22227415      635.
## # … with 1,694 more rows
```

4. Put `continent` first. Hint: use the `everything()` function.


```r
select(gapminder, continent, everything())
```

```
## # A tibble: 1,704 x 6
##    continent country      year lifeExp      pop gdpPercap
##    <fct>     <fct>       <int>   <dbl>    <int>     <dbl>
##  1 Asia      Afghanistan  1952    28.8  8425333      779.
##  2 Asia      Afghanistan  1957    30.3  9240934      821.
##  3 Asia      Afghanistan  1962    32.0 10267083      853.
##  4 Asia      Afghanistan  1967    34.0 11537966      836.
##  5 Asia      Afghanistan  1972    36.1 13079460      740.
##  6 Asia      Afghanistan  1977    38.4 14880372      786.
##  7 Asia      Afghanistan  1982    39.9 12881816      978.
##  8 Asia      Afghanistan  1987    40.8 13867957      852.
##  9 Asia      Afghanistan  1992    41.7 16317921      649.
## 10 Asia      Afghanistan  1997    41.8 22227415      635.
## # … with 1,694 more rows
```

```r
# put continent column in the dataset first, then all other columns later
select(gapminder, continent, gdpPercap:country)
```

```
## # A tibble: 1,704 x 6
##    continent gdpPercap      pop lifeExp  year country    
##    <fct>         <dbl>    <int>   <dbl> <int> <fct>      
##  1 Asia           779.  8425333    28.8  1952 Afghanistan
##  2 Asia           821.  9240934    30.3  1957 Afghanistan
##  3 Asia           853. 10267083    32.0  1962 Afghanistan
##  4 Asia           836. 11537966    34.0  1967 Afghanistan
##  5 Asia           740. 13079460    36.1  1972 Afghanistan
##  6 Asia           786. 14880372    38.4  1977 Afghanistan
##  7 Asia           978. 12881816    39.9  1982 Afghanistan
##  8 Asia           852. 13867957    40.8  1987 Afghanistan
##  9 Asia           649. 16317921    41.7  1992 Afghanistan
## 10 Asia           635. 22227415    41.8  1997 Afghanistan
## # … with 1,694 more rows
```
```r
# # put continent column in the dataset first, then all other columns later in a reverse order
```


5. Rename `continent` to `cont`.


```r
# compare
select(gapminder, cont = continent, everything()) 
```

```
## # A tibble: 1,704 x 6
##    cont  country      year lifeExp      pop gdpPercap
##    <fct> <fct>       <int>   <dbl>    <int>     <dbl>
##  1 Asia  Afghanistan  1952    28.8  8425333      779.
##  2 Asia  Afghanistan  1957    30.3  9240934      821.
##  3 Asia  Afghanistan  1962    32.0 10267083      853.
##  4 Asia  Afghanistan  1967    34.0 11537966      836.
##  5 Asia  Afghanistan  1972    36.1 13079460      740.
##  6 Asia  Afghanistan  1977    38.4 14880372      786.
##  7 Asia  Afghanistan  1982    39.9 12881816      978.
##  8 Asia  Afghanistan  1987    40.8 13867957      852.
##  9 Asia  Afghanistan  1992    41.7 16317921      649.
## 10 Asia  Afghanistan  1997    41.8 22227415      635.
## # … with 1,694 more rows
```

```r
# functions to select the first column and rename it at the same time
rename(gapminder, cont = continent)
```

```
## # A tibble: 1,704 x 6
##    country     cont   year lifeExp      pop gdpPercap
##    <fct>       <fct> <int>   <dbl>    <int>     <dbl>
##  1 Afghanistan Asia   1952    28.8  8425333      779.
##  2 Afghanistan Asia   1957    30.3  9240934      821.
##  3 Afghanistan Asia   1962    32.0 10267083      853.
##  4 Afghanistan Asia   1967    34.0 11537966      836.
##  5 Afghanistan Asia   1972    36.1 13079460      740.
##  6 Afghanistan Asia   1977    38.4 14880372      786.
##  7 Afghanistan Asia   1982    39.9 12881816      978.
##  8 Afghanistan Asia   1987    40.8 13867957      852.
##  9 Afghanistan Asia   1992    41.7 16317921      649.
## 10 Afghanistan Asia   1997    41.8 22227415      635.
## # … with 1,694 more rows
```
…
## `arrange()` (8 min)

1. Order by year.


```r
arrange(gapminder, year)
```

```
## # A tibble: 1,704 x 6
##    country     continent  year lifeExp      pop gdpPercap
##    <fct>       <fct>     <int>   <dbl>    <int>     <dbl>
##  1 Afghanistan Asia       1952    28.8  8425333      779.
##  2 Albania     Europe     1952    55.2  1282697     1601.
##  3 Algeria     Africa     1952    43.1  9279525     2449.
##  4 Angola      Africa     1952    30.0  4232095     3521.
##  5 Argentina   Americas   1952    62.5 17876956     5911.
##  6 Australia   Oceania    1952    69.1  8691212    10040.
##  7 Austria     Europe     1952    66.8  6927772     6137.
##  8 Bahrain     Asia       1952    50.9   120447     9867.
##  9 Bangladesh  Asia       1952    37.5 46886859      684.
## 10 Belgium     Europe     1952    68    8730405     8343.
## # … with 1,694 more rows
```

2. Order by year, in descending order.


```r
arrange(gapminder, desc(year))
```

```
## # A tibble: 1,704 x 6
##    country     continent  year lifeExp       pop gdpPercap
##    <fct>       <fct>     <int>   <dbl>     <int>     <dbl>
##  1 Afghanistan Asia       2007    43.8  31889923      975.
##  2 Albania     Europe     2007    76.4   3600523     5937.
##  3 Algeria     Africa     2007    72.3  33333216     6223.
##  4 Angola      Africa     2007    42.7  12420476     4797.
##  5 Argentina   Americas   2007    75.3  40301927    12779.
##  6 Australia   Oceania    2007    81.2  20434176    34435.
##  7 Austria     Europe     2007    79.8   8199783    36126.
##  8 Bahrain     Asia       2007    75.6    708573    29796.
##  9 Bangladesh  Asia       2007    64.1 150448339     1391.
## 10 Belgium     Europe     2007    79.4  10392226    33693.
## # … with 1,694 more rows
```

3. Order by year, then by life expectancy.


```r
arrange(gapminder, year, lifeExp)
```

```
## # A tibble: 1,704 x 6
##    country       continent  year lifeExp     pop gdpPercap
##    <fct>         <fct>     <int>   <dbl>   <int>     <dbl>
##  1 Afghanistan   Asia       1952    28.8 8425333      779.
##  2 Gambia        Africa     1952    30    284320      485.
##  3 Angola        Africa     1952    30.0 4232095     3521.
##  4 Sierra Leone  Africa     1952    30.3 2143249      880.
##  5 Mozambique    Africa     1952    31.3 6446316      469.
##  6 Burkina Faso  Africa     1952    32.0 4469979      543.
##  7 Guinea-Bissau Africa     1952    32.5  580653      300.
##  8 Yemen, Rep.   Asia       1952    32.5 4963829      782.
##  9 Somalia       Africa     1952    33.0 2526994     1136.
## 10 Guinea        Africa     1952    33.6 2664249      510.
## # … with 1,694 more rows
```
…
Now using with pipes:


```r
# alter the below to include 2 "pipes"
gapminder %>%
  select(year, lifeExp, country) %>% 
  arrange(year, lifeExp)
```

```
## # A tibble: 1,704 x 3
##     year lifeExp country      
##    <int>   <dbl> <fct>        
##  1  1952    28.8 Afghanistan  
##  2  1952    30   Gambia       
##  3  1952    30.0 Angola       
##  4  1952    30.3 Sierra Leone 
##  5  1952    31.3 Mozambique   
##  6  1952    32.0 Burkina Faso 
##  7  1952    32.5 Guinea-Bissau
##  8  1952    32.5 Yemen, Rep.  
##  9  1952    33.0 Somalia      
## 10  1952    33.6 Guinea       
## # … with 1,694 more rows
```
…
Return to guide at section 6.7.

## `filter()` (10 min)

1. Only take data with population greater than 100 million.


```r
gapminder %>%
  filter(pop < 100000000) 
```

```
## # A tibble: 1,627 x 6
##    country     continent  year lifeExp      pop gdpPercap
##    <fct>       <fct>     <int>   <dbl>    <int>     <dbl>
##  1 Afghanistan Asia       1952    28.8  8425333      779.
##  2 Afghanistan Asia       1957    30.3  9240934      821.
##  3 Afghanistan Asia       1962    32.0 10267083      853.
##  4 Afghanistan Asia       1967    34.0 11537966      836.
##  5 Afghanistan Asia       1972    36.1 13079460      740.
##  6 Afghanistan Asia       1977    38.4 14880372      786.
##  7 Afghanistan Asia       1982    39.9 12881816      978.
##  8 Afghanistan Asia       1987    40.8 13867957      852.
##  9 Afghanistan Asia       1992    41.7 16317921      649.
## 10 Afghanistan Asia       1997    41.8 22227415      635.
## # … with 1,617 more rows
```

2. Your turn: of those rows filtered from step 1., only take data from Asia.


```r
gapminder %>%
  filter(pop < 100000000 & continent == "Asia") # both & and , work
```

```
## # A tibble: 344 x 6
##    country     continent  year lifeExp      pop gdpPercap
##    <fct>       <fct>     <int>   <dbl>    <int>     <dbl>
##  1 Afghanistan Asia       1952    28.8  8425333      779.
##  2 Afghanistan Asia       1957    30.3  9240934      821.
##  3 Afghanistan Asia       1962    32.0 10267083      853.
##  4 Afghanistan Asia       1967    34.0 11537966      836.
##  5 Afghanistan Asia       1972    36.1 13079460      740.
##  6 Afghanistan Asia       1977    38.4 14880372      786.
##  7 Afghanistan Asia       1982    39.9 12881816      978.
##  8 Afghanistan Asia       1987    40.8 13867957      852.
##  9 Afghanistan Asia       1992    41.7 16317921      649.
## 10 Afghanistan Asia       1997    41.8 22227415      635.
## # … with 334 more rows
```

3. Repeat 2, but take data from countries Brazil, and China. 


```r
gapminder %>%
  filter(country == "Brazil" | country == "China")
```

```
## # A tibble: 24 x 6
##    country continent  year lifeExp       pop gdpPercap
##    <fct>   <fct>     <int>   <dbl>     <int>     <dbl>
##  1 Brazil  Americas   1952    50.9  56602560     2109.
##  2 Brazil  Americas   1957    53.3  65551171     2487.
##  3 Brazil  Americas   1962    55.7  76039390     3337.
##  4 Brazil  Americas   1967    57.6  88049823     3430.
##  5 Brazil  Americas   1972    59.5 100840058     4986.
##  6 Brazil  Americas   1977    61.5 114313951     6660.
##  7 Brazil  Americas   1982    63.3 128962939     7031.
##  8 Brazil  Americas   1987    65.2 142938076     7807.
##  9 Brazil  Americas   1992    67.1 155975974     6950.
## 10 Brazil  Americas   1997    69.4 168546719     7958.
## # … with 14 more rows
```
…
Let's get: 

- GDP by multiplying GPD per capita with population, and
- GDP in billions, named (`gdpBill`), rounded to two decimals.


```r
gapminder <- gapminder %>%
  mutate(gdp = gdpPercap * pop)
gapminder %>% 
  mutate(gdpBill = round(gdp/1000000000, 2))
```

```
## # A tibble: 1,704 x 8
##    country    continent  year lifeExp      pop gdpPercap        gdp gdpBill
##    <fct>      <fct>     <int>   <dbl>    <int>     <dbl>      <dbl>   <dbl>
##  1 Afghanist… Asia       1952    28.8  8425333      779.    6.57e 9    6.57
##  2 Afghanist… Asia       1957    30.3  9240934      821.    7.59e 9    7.59
##  3 Afghanist… Asia       1962    32.0 10267083      853.    8.76e 9    8.76
##  4 Afghanist… Asia       1967    34.0 11537966      836.    9.65e 9    9.65
##  5 Afghanist… Asia       1972    36.1 13079460      740.    9.68e 9    9.68
##  6 Afghanist… Asia       1977    38.4 14880372      786.    1.17e10   11.7 
##  7 Afghanist… Asia       1982    39.9 12881816      978.    1.26e10   12.6 
##  8 Afghanist… Asia       1987    40.8 13867957      852.    1.18e10   11.8 
##  9 Afghanist… Asia       1992    41.7 16317921      649.    1.06e10   10.6 
## 10 Afghanist… Asia       1997    41.8 22227415      635.    1.41e10   14.1 
## # … with 1,694 more rows
```
…
Notice the backwards compatibility! No need for loops!

Try the same thing, but with `transmute` (drops all other variables). 


```r
gapminder %>%
  transmute(gdpBill = round(gdp/1000000000, 2))
```

```
## # A tibble: 1,704 x 1
##    gdpBill
##      <dbl>
##  1    6.57
##  2    7.59
##  3    8.76
##  4    9.65
##  5    9.68
##  6   11.7 
##  7   12.6 
##  8   11.8 
##  9   10.6 
## 10   14.1 
## # … with 1,694 more rows
```

The `if_else` function is useful for changing certain elements in a data frame.

Example: Suppose Canada's 1952 life expectancy was mistakenly entered as 68.8 in the data frame, but is actually 70. Fix it using `if_else` and `mutate`. 


```r
gapminder %>%
  mutate(lifeExp = ifelse(country == 'Canada' & year == 1952, 70, lifeExp))
```

```
## # A tibble: 1,704 x 7
##    country     continent  year lifeExp      pop gdpPercap          gdp
##    <fct>       <fct>     <int>   <dbl>    <int>     <dbl>        <dbl>
##  1 Afghanistan Asia       1952    28.8  8425333      779.  6567086330.
##  2 Afghanistan Asia       1957    30.3  9240934      821.  7585448670.
##  3 Afghanistan Asia       1962    32.0 10267083      853.  8758855797.
##  4 Afghanistan Asia       1967    34.0 11537966      836.  9648014150.
##  5 Afghanistan Asia       1972    36.1 13079460      740.  9678553274.
##  6 Afghanistan Asia       1977    38.4 14880372      786. 11697659231.
##  7 Afghanistan Asia       1982    39.9 12881816      978. 12598563401.
##  8 Afghanistan Asia       1987    40.8 13867957      852. 11820990309.
##  9 Afghanistan Asia       1992    41.7 16317921      649. 10595901589.
## 10 Afghanistan Asia       1997    41.8 22227415      635. 14121995875.
## # … with 1,694 more rows
```

Your turn: Make a new column called `cc` that pastes the country name followed by the continent, separated by a comma. (Hint: use the `paste` function with the `sep=", "` argument).


```r
gapminder %>% 
  mutate(cc = paste(country, continent, sep = ", "))
```

```
## # A tibble: 1,704 x 8
##    country   continent  year lifeExp     pop gdpPercap       gdp cc        
##    <fct>     <fct>     <int>   <dbl>   <int>     <dbl>     <dbl> <chr>     
##  1 Afghanis… Asia       1952    28.8  8.43e6      779.   6.57e 9 Afghanist…
##  2 Afghanis… Asia       1957    30.3  9.24e6      821.   7.59e 9 Afghanist…
##  3 Afghanis… Asia       1962    32.0  1.03e7      853.   8.76e 9 Afghanist…
##  4 Afghanis… Asia       1967    34.0  1.15e7      836.   9.65e 9 Afghanist…
##  5 Afghanis… Asia       1972    36.1  1.31e7      740.   9.68e 9 Afghanist…
##  6 Afghanis… Asia       1977    38.4  1.49e7      786.   1.17e10 Afghanist…
##  7 Afghanis… Asia       1982    39.9  1.29e7      978.   1.26e10 Afghanist…
##  8 Afghanis… Asia       1987    40.8  1.39e7      852.   1.18e10 Afghanist…
##  9 Afghanis… Asia       1992    41.7  1.63e7      649.   1.06e10 Afghanist…
## 10 Afghanis… Asia       1997    41.8  2.22e7      635.   1.41e10 Afghanist…
## # … with 1,694 more rows
```
…
